Hierarchical Data Management and Visualization - Disease Ecology and Evolution
…
What about the mean weights for genera on different mountains?

berg %>% 
  group_by(Mount, Genera) %>% # Cluster all the data for each mountain AND genus
  summarize(Weight_avg = mean(Weight), Weight_sd = sd(Weight)) %>%
  print(n=20) # Print 20 rows, instead of the default 10

## Source: local data frame [150 x 4]
## Groups: Mount [?]
## 
##     Mount Genera  Weight_avg Weight_sd
##    <fctr> <fctr>       <dbl>     <dbl>
## 1       1      1  -2.7573401  3.307295
## 2       1      2   8.5972132  4.181637
## 3       1      3   2.9854196  2.335625
## 4       1      4  21.0834808 11.479890
## 5       1      5  15.7930094  4.096622
## 6       1      6   7.4557598  4.285728
## 7       1      7 -19.7661844  3.677072
## 8       1      8  -4.3076198  4.861927
## 9       1      9  15.5273034  4.934868
## 10      1     10   0.7746332  4.438193
## 11      1     11  -5.6647755  2.666068
## 12      1     12   0.4239082  2.928701
## 13      1     13   0.6039859  5.401860
## 14      1     14  13.7291090  3.167712
## 15      1     15  11.2012089  2.628091
## 16      2      1  -3.3664910  1.907666
## 17      2      2   8.9181201  3.174841
## 18      2      3   1.2582477  2.300102
## 19      2      4  20.8658468 10.419646
## 20      2      5  15.1743084  3.173604
## # ... with 130 more rows
…
