…
{% highlight r %}
# Now cluster by Mount and Genera
# print() can be used to specify how many columns to print to screen

berg %>% 
  group_by(Mount, Genera) %>% 
  summarize(Weight_avg = mean(Weight), Weight_sd = sd(Weight)) %>%
  print(n=20) 
{% endhighlight %}



{% highlight text %}
## Source: local data frame [150 x 4]
## Groups: Mount [?]
## 
##     Mount Genera  Weight_avg Weight_sd
##    <fctr> <fctr>       <dbl>     <dbl>
## 1       1      1  -4.4544981  3.557380
## 2       1      2  18.5225092  2.642183
## 3       1      3   3.5370207  3.253391
## 4       1      4   1.7430990  2.816731
## 5       1      5  -9.2871199  3.045857
## 6       1      6   6.7972462  4.148961
## 7       1      7  13.2109473  3.133184
## 8       1      8   4.2826290  3.119941
## 9       1      9  -1.9444854  2.278156
## 10      1     10   3.3850735  3.412358
## 11      1     11   0.2992717  1.924521
## 12      1     12 -13.4347891  4.312500
## 13      1     13  15.4608036  2.652208
## 14      1     14   7.5510452  3.584307
## 15      1     15  13.9542854  3.228134
## 16      2      1  -6.2408338  3.316820
## 17      2      2  15.6266652  2.730077
## 18      2      3   3.4377517  3.139546
## 19      2      4  -0.7654253  3.229899
## 20      2      5 -12.2088844  3.346544
## # ... with 130 more rows
…
